bmaxwell.inp
decay of a maxwellian distribution in a strong b field.

-nsp---nc---nc2p---dt[s]---length[m]--area[m^2]--epsilonr--B[Tesla]---PSI[D]--
  2   100   1e8    1e-10      1e-2       1.0        1.0     1.6e-2      90.0

-rhoback[C/m^3]---backj[Amp/m^2]---dde--extR[Ohm]--extL[H]---extC[F]---q0[C]--
     0.0               0.0         0.0    0.0        0.0      1.0       0.0

-dcramped--source--dc[V|Amp]--ramp[(V|Amp)/s]---ac[V|Amp]---f0[Hz]--theta0[D]-
    0        v        0.0           0.0             0.0      1e7       0.0

--secondary--e_collisional--i_collisional---reflux--nfft--n_ave--nsmoothing--ntimestep--
    0             0               0           0      0     0        2            0

--seec(electrons)--seec(ions)--ion species---Gpressure[Torr]---GTemp[eV]---imp--
       0.0            0.2           2             5e-2          .026        0

---GAS----psource--nstrt--
    1      0        0


SPECIES 1

----q[C]-------m[Kg]---j0L[Amp/m^2]---j0R[Amp/m^2]----initn[m^-3]----k---
 -1.602e-19   9.11e-31    0.0              0.           1e13         1

--vx0L[m/s]---vx0R[m/s]---vxtL[m/s]---vxtR[m/s]--vxcL[m/s]--vxcR[m/s]---
    0.0        0.         6.7e5      6.7e5        0.          0.

--v0y[m/s]---vty[m/s]---v0z[m/s]---vtz[m/s]--
     0.0      6.7e5       0.0       6.7e5

--nbin----Emin[eV]----Emax[ev]---max-np--
    50       0.0         15.0      50000

-For-Mid-Diagnostic---nbin----Emin[eV]---Emax[eV]----XStart--XFinish--
                      100       0.01      15.0        .045    .055

 -For-vel_dist---vx_lower--vx_upper--nxbin--vy_lower--vy_upper--nybin--vz_lower--vz_upper--nzbin-
                   -1.5e6   1.5e6      0      -1.5e6     1.5e6     0      -1.5e6   1.5e6      0

SPECIES 2

----q[C] ------m[Kg]---j0L[Amp/m^2]---j0R[Amp/m^2]----initn[m^-3]----k---
  1.602e-19  3.644e-29    0.0               0.           1e13        1

--vx0L[m/s]---vx0R[m/s]---vxtL[m/s]---vxtR[m/s]--vxcL[m/s]--vxcR[m/s]---
    0.         0.        1.06e5     1.06e5       0.          0.

--v0y[m/s]---vty[m/s]---v0z[m/s]---vtz[m/s]--
     0.0      1.06e5      0.0       1.06e5

--nbin----Emin[eV]----Emax[ev]---max-np--
    50       0.0         10.0      50000

-For-Mid-Diagnostic---nbin----Emin[eV]---Emax[eV]----XStart--XFinish--
                      100       0.01      15.0        .045    .055

 -For-vel_dist---vx_lower--vx_upper--nxbin--vy_lower--vy_upper--nybin--vz_lower--vz_upper--nzbin-
                   -1.5e6   1.5e6      0      -1.5e6     1.5e6     0      -1.5e6   1.5e6      0

